7 Introduction to R and the Tidyverse – Introduction to Ancient Metagenomics
…
It then returns an in-memory representation of this data, a tibble.

A tibble is a “data frame”, a tabular data structure with rows and columns. Unlike a simple array, each column can have another data type.

7.2.4 How to look at a tibble?

Typing the name of any object into the R console will print an overview to the console.

peng

# A tibble: 300 × 7
      id species island    flipper_length_mm body_mass_g sex    year 
   <int> <chr>   <chr>                 <dbl>       <dbl> <chr>  <chr>
 1     1 Adelie  Torgersen               181        3750 male   2007 
 2     2 Adelie  Torgersen               186        3800 female 2007 
 3     4 Adelie  Torgersen               193        3450 female 2007 
 4     5 Adelie  Torgersen               190        3650 male   2007 
 5     6 Adelie  Torgersen               181        3625 female 2007 
 6     7 Adelie  Torgersen               195        4675 male   2007 
 7     9 Adelie  Torgersen               191        3800 male   2007 
 8    10 Adelie  Torgersen               198        4400 male   2007 
 9    11 Adelie  Torgersen               185        3700 female 2007 
10    12 Adelie  Torgersen               195        3450 female 2007 
# ℹ 290 more rows
…
7.4 Conditional queries on tibbles

7.4.1 Selecting columns and filtering rows with select and filter

The dplyr package includes powerful functions to subset data in tibbles based on conditions. dplyr::select allows to select columns.

dplyr::select(peng, id, flipper_length_mm) # reduce tibble to two columns

# A tibble: 300 × 2
     id flipper_length_mm
  <int>             <dbl>
1     1               181
2     2               186
3     4               193
4     5               190
5     6               181
# ℹ 295 more rows

dplyr::select(peng, -island, -flipper_length_mm) # remove two columns

# A tibble: 300 × 5
     id species body_mass_g sex    year 
  <int> <chr>         <dbl> <chr>  <chr>
1     1 Adelie         3750 male   2007 
2     2 Adelie         3800 female 2007 
3     4 Adelie         3450 female 2007 
4     5 Adelie         3650 male   2007 
5     6 Adelie         3625 female 2007 
# ℹ 295 more rows

dplyr::filter allows for conditional filtering of rows.

dplyr::filter(peng, year == 2007) # penguins examined in 2007

# A tibble: 93 × 7
     id species island    flipper_length_mm body_mass_g sex    year 
  <int> <chr>   <chr>                 <dbl>       <dbl> <chr>  <chr>
1     1 Adelie  Torgersen               181        3750 male   2007 
2     2 Adelie  Torgersen               186        3800 female 2007 
3     4 Adelie  Torgersen               193        3450 female 2007 
4     5 Adelie  Torgersen               190        3650 male   2007 
5     6 Adelie  Torgersen               181        3625 female 2007 
# ℹ 88 more rows

dplyr::filter(peng, year == 2007 |
    year == 2009) # penguins examined in 2007 OR 2009

# A tibble: 198 × 7
     id species island    flipper_length_mm body_mass_g sex    year 
  <int> <chr>   <chr>                 <dbl>       <dbl> <chr>  <chr>
1     1 Adelie  Torgersen               181        3750 male   2007 
2     2 Adelie  Torgersen               186        3800 female 2007 
3     4 Adelie  Torgersen               193        3450 female 2007 
4     5 Adelie  Torgersen               190        3650 male   2007 
5     6 Adelie  Torgersen               181        3625 female 2007 
# ℹ 193 more rows

dplyr::filter(
    peng, # an alternative way to express
    year %in% c(2007, 2009)
) # OR with the match operator "%in%"

# A tibble: 198 × 7
     id species island    flipper_length_mm body_mass_g sex    year 
  <int> <chr>   <chr>                 <dbl>       <dbl> <chr>  <chr>
1     1 Adelie  Torgersen               181        3750 male   2007 
2     2 Adelie  Torgersen               186        3800 female 2007 
3     4 Adelie  Torgersen               193        3450 female 2007 
4     5 Adelie  Torgersen               190        3650 male   2007 
5     6 Adelie  Torgersen               181        3625 female 2007 
# ℹ 193 more rows

dplyr::filter(peng, species == "Adelie" &
    body_mass_g >= 4000) # Adelie penguins heavier than 4kg

# A tibble: 29 × 7
     id species island    flipper_length_mm body_mass_g sex   year 
  <int> <chr>   <chr>                 <dbl>       <dbl> <chr> <chr>
1     7 Adelie  Torgersen               195        4675 male  2007 
2    10 Adelie  Torgersen               198        4400 male  2007 
3    13 Adelie  Torgersen               197        4500 male  2007 
4    31 Adelie  Dream                   196        4150 male  2007 
5    39 Adelie  Dream                   196        4400 male  2007 
# ℹ 24 more rows

7.4.2 Chaining functions together with the pipe %>%

A core feature of the tidyverse is the pipe %>% in the magrittr package. This ‘infix’ operator allows to chain data and operations for concise and clear data analysis syntax.

library(magrittr)
peng %>% dplyr::filter(year == 2007)

# A tibble: 93 × 7
     id species island    flipper_length_mm body_mass_g sex    year 
  <int> <chr>   <chr>                 <dbl>       <dbl> <chr>  <chr>
1     1 Adelie  Torgersen               181        3750 male   2007 
2     2 Adelie  Torgersen               186        3800 female 2007 
3     4 Adelie  Torgersen               193        3450 female 2007 
4     5 Adelie  Torgersen               190        3650 male   2007 
5     6 Adelie  Torgersen               181        3625 female 2007 
# ℹ 88 more rows
…
Grouping can also be applied across multiple columns at once.

peng %>%
    dplyr::group_by(species, year) %>% # group by species and year
    dplyr::summarise(
        n = dplyr::n(), # a new column: number of penguins for each group
        .groups = "drop" # drop the grouping after this summary operation
    )

# A tibble: 9 × 3
  species   year      n
  <chr>     <chr> <int>
1 Adelie    2007     38
2 Adelie    2008     45
3 Adelie    2009     43
4 Chinstrap 2007     23
5 Chinstrap 2008     18
# ℹ 4 more rows

If we group by more than one variable, then summarise will not entirely remove the group tagging when generating the result dataset. We can force this with .groups = "drop" to avoid undesired behaviour with this dataset later on.

7.4.5 Sorting and slicing tibbles with arrange and slice

dplyr allows to arrange tibbles by one or multiple columns.

peng %>% dplyr::arrange(sex) # sort by sex

# A tibble: 300 × 7
     id species island    flipper_length_mm body_mass_g sex    year 
  <int> <chr>   <chr>                 <dbl>       <dbl> <chr>  <chr>
1     2 Adelie  Torgersen               186        3800 female 2007 
2     4 Adelie  Torgersen               193        3450 female 2007 
3     6 Adelie  Torgersen               181        3625 female 2007 
4    11 Adelie  Torgersen               185        3700 female 2007 
5    12 Adelie  Torgersen               195        3450 female 2007 
# ℹ 295 more rows

peng %>% dplyr::arrange(sex, body_mass_g) # sort by sex and weight

# A tibble: 300 × 7
     id species   island    flipper_length_mm body_mass_g sex    year 
  <int> <chr>     <chr>                 <dbl>       <dbl> <chr>  <chr>
1   304 Chinstrap Dream                   192        2700 female 2008 
2    53 Adelie    Biscoe                  181        2850 female 2008 
3    59 Adelie    Biscoe                  184        2850 female 2008 
4    49 Adelie    Biscoe                  187        2900 female 2008 
5   111 Adelie    Torgersen               188        2900 female 2009 
# ℹ 295 more rows

peng %>% dplyr::arrange(dplyr::desc(body_mass_g)) # sort descending

# A tibble: 300 × 7
     id species island flipper_length_mm body_mass_g sex   year 
  <int> <chr>   <chr>              <dbl>       <dbl> <chr> <chr>
1   164 Gentoo  Biscoe               221        6300 male  2007 
2   179 Gentoo  Biscoe               230        6050 male  2007 
3   260 Gentoo  Biscoe               222        6000 male  2009 
4   224 Gentoo  Biscoe               223        5950 male  2008 
5   160 Gentoo  Biscoe               213        5850 male  2007 
# ℹ 295 more rows

Sorting also works within groups and can be paired with slice to extract extreme values per group.

Here we extract the heaviest individuals per species.

peng %>%
    dplyr::group_by(species) %>% # group by species
    dplyr::arrange(dplyr::desc(body_mass_g)) %>% # sort by weight within (!) groups
    dplyr::slice_head(n = 3) %>% # keep the first three penguins per group
    dplyr::ungroup() # remove the still lingering grouping

# A tibble: 9 × 7
     id species   island    flipper_length_mm body_mass_g sex   year 
  <int> <chr>     <chr>                 <dbl>       <dbl> <chr> <chr>
1   104 Adelie    Biscoe                  197        4775 male  2009 
2    96 Adelie    Biscoe                  203        4725 male  2009 
3    76 Adelie    Torgersen               196        4700 male  2008 
4   303 Chinstrap Dream                   210        4800 male  2008 
5   295 Chinstrap Dream                   205        4550 male  2008 
# ℹ 4 more rows

Slicing is also the relevant operation to take random samples from the observations in a tibble.

peng %>% dplyr::slice_sample(n = 10)

# A tibble: 10 × 7
     id species island flipper_length_mm body_mass_g sex    year 
  <int> <chr>   <chr>              <dbl>       <dbl> <chr>  <chr>
1    47 Adelie  Biscoe               190        3450 female 2008 
2   239 Gentoo  Biscoe               214        4850 female 2009 
3   221 Gentoo  Biscoe               209        4600 female 2008 
4   104 Adelie  Biscoe               197        4775 male   2009 
5   138 Adelie  Dream                190        3725 male   2009 
# ℹ 5 more rows
…
[1] "Cadillac Fleetwood" "Maserati Bora"     

7.5 Transforming and manipulating tibbles

7.5.1 Renaming and reordering columns with rename and relocate

Columns in tibbles can be renamed with dplyr::rename.

peng %>% dplyr::rename(penguin_name = id) # rename a column

# A tibble: 300 × 7
  penguin_name species island    flipper_length_mm body_mass_g sex    year 
         <int> <chr>   <chr>                 <dbl>       <dbl> <chr>  <chr>
1            1 Adelie  Torgersen               181        3750 male   2007 
2            2 Adelie  Torgersen               186        3800 female 2007 
3            4 Adelie  Torgersen               193        3450 female 2007 
4            5 Adelie  Torgersen               190        3650 male   2007 
5            6 Adelie  Torgersen               181        3625 female 2007 
# ℹ 295 more rows

And with dplyr::relocate they can be reordered.

peng %>% dplyr::relocate(year, .before = species) # reorder columns

# A tibble: 300 × 7
     id year  species island    flipper_length_mm body_mass_g sex   
  <int> <chr> <chr>   <chr>                 <dbl>       <dbl> <chr> 
1     1 2007  Adelie  Torgersen               181        3750 male  
2     2 2007  Adelie  Torgersen               186        3800 female
3     4 2007  Adelie  Torgersen               193        3450 female
4     5 2007  Adelie  Torgersen               190        3650 male  
5     6 2007  Adelie  Torgersen               181        3625 female
# ℹ 295 more rows

Adding columns to tibbles with mutate and transmute.

A common application of data manipulation is adding new, derived columns, that combine or modify the information in the already available columns. dplyr offers this core feature with the mutate function.

peng %>%
    dplyr::mutate( # add a column that
        kg = body_mass_g / 1000 # manipulates an existing column
    )

# A tibble: 300 × 8
     id species island    flipper_length_mm body_mass_g sex    year     kg
  <int> <chr>   <chr>                 <dbl>       <dbl> <chr>  <chr> <dbl>
1     1 Adelie  Torgersen               181        3750 male   2007   3.75
2     2 Adelie  Torgersen               186        3800 female 2007   3.8 
3     4 Adelie  Torgersen               193        3450 female 2007   3.45
4     5 Adelie  Torgersen               190        3650 male   2007   3.65
5     6 Adelie  Torgersen               181        3625 female 2007   3.62
# ℹ 295 more rows

dplyr::transmute has the same interface as dplyr::mutate, but it removes all columns except for the newly created ones.

peng %>%
    dplyr::transmute(
        id = paste("Penguin Nr.", id), # overwrite this column
        flipper_length_mm # select this column
    )

# A tibble: 300 × 2
  id            flipper_length_mm
  <chr>                     <dbl>
1 Penguin Nr. 1               181
2 Penguin Nr. 2               186
3 Penguin Nr. 4               193
4 Penguin Nr. 5               190
5 Penguin Nr. 6               181
# ℹ 295 more rows

tibble::add_column behaves as dplyr::mutate, but gives more control over column position.

peng %>% tibble::add_column(
    flipper_length_cm = .$flipper_length_mm / 10, # not the . representing the LHS of the pipe
    .after = "flipper_length_mm"
)

# A tibble: 300 × 8
     id species island    flipper_length_mm flipper_length_cm body_mass_g sex   
  <int> <chr>   <chr>                 <dbl>             <dbl>       <dbl> <chr> 
1     1 Adelie  Torgersen               181              18.1        3750 male  
2     2 Adelie  Torgersen               186              18.6        3800 female
3     4 Adelie  Torgersen               193              19.3        3450 female
4     5 Adelie  Torgersen               190              19          3650 male  
5     6 Adelie  Torgersen               181              18.1        3625 female
# ℹ 295 more rows
# ℹ 1 more variable: year <chr>

dplyr::mutate can also be combined with dplyr::group_by (instead of dplyr::summarise) to add information on a group level. This is relevant, when a value for an individual entity should be put into context of a group-wise summary statistic.

peng %>%
    dplyr::group_by(species, sex, year) %>%
    dplyr::mutate(
        mean_weight = mean(body_mass_g, na.rm = T),
        relation_to_mean = body_mass_g / mean_weight
    ) %>%
    dplyr::ungroup() %>%
    dplyr::select(id, species, sex, year, relation_to_mean) %>%
    # mutate does not remove rows, unlike summarise, so we use select
    dplyr::arrange(dplyr::desc(relation_to_mean))

# A tibble: 300 × 5
     id species   sex    year  relation_to_mean
  <int> <chr>     <chr>  <chr>            <dbl>
1   104 Adelie    male   2009              1.21
2    96 Adelie    male   2009              1.20
3   274 Chinstrap female 2007              1.17
4     7 Adelie    male   2007              1.17
5   303 Chinstrap male   2008              1.16
# ℹ 295 more rows

7.5.2 Conditional operations with ifelse, case_when and case_match

ifelse allows to implement conditional mutate operations, that consider information from other columns.

peng %>% dplyr::mutate(
    weight = ifelse(
        test = body_mass_g >= 4200, # is weight below or above mean weight?
        yes = "above mean",
        no = "below mean"
    )
)

# A tibble: 300 × 8
     id species island    flipper_length_mm body_mass_g sex    year  weight    
  <int> <chr>   <chr>                 <dbl>       <dbl> <chr>  <chr> <chr>     
1     1 Adelie  Torgersen               181        3750 male   2007  below mean
2     2 Adelie  Torgersen               186        3800 female 2007  below mean
3     4 Adelie  Torgersen               193        3450 female 2007  below mean
4     5 Adelie  Torgersen               190        3650 male   2007  below mean
5     6 Adelie  Torgersen               181        3625 female 2007  below mean
# ℹ 295 more rows

ifelse gets cumbersome easily. dplyr::case_when is more readable and scales much better for this application.

peng %>% dplyr::mutate(
    weight = dplyr::case_when(
        body_mass_g >= 4200 ~ "above mean", # the number of conditions is arbitrary
        body_mass_g < 4200 ~ "below mean",
        TRUE ~ "unknown" # TRUE catches all remaining cases
    )
)

# A tibble: 300 × 8
     id species island    flipper_length_mm body_mass_g sex    year  weight    
  <int> <chr>   <chr>                 <dbl>       <dbl> <chr>  <chr> <chr>     
1     1 Adelie  Torgersen               181        3750 male   2007  below mean
2     2 Adelie  Torgersen               186        3800 female 2007  below mean
3     4 Adelie  Torgersen               193        3450 female 2007  below mean
4     5 Adelie  Torgersen               190        3650 male   2007  below mean
5     6 Adelie  Torgersen               181        3625 female 2007  below mean
# ℹ 295 more rows
…
To transform this dataset to a long format, we can apply tidyr::pivot_longer.

carsales_long <- carsales %>% tidyr::pivot_longer(
    cols = tidyselect::num_range(
        "",
        range = 2014:2017
    ), # define a set of columns to transform
    names_to = "year", # the name of the descriptor column we want
    names_transform = as.integer, # a transformation function to apply to the names
    values_to = "sales" # the name of the value column we want
)
carsales_long

# A tibble: 8 × 3
  brand  year sales
  <chr> <int> <dbl>
1 BMW    2014    20
2 BMW    2015    25
3 BMW    2016    30
4 BMW    2017    45
5 VW     2014    67
# ℹ 3 more rows
…
7.5.4 Exercise

Move the column gear to the first position of the mtcars dataset

Make a new dataset mtcars2 with the column mpg and an additional column am_v, which encodes the transmission type (am) as either "manual" or "automatic"

Count the number of cars per transmission type (am_v) and number of gears (gear). Then transform the result to a wide format, with one column per transmission type.

Possible solutions

mtcars %>%
    dplyr::relocate(gear, .before = mpg) %>%
    tibble::as_tibble() # transforming the raw dataset for better printing

# A tibble: 32 × 11
   gear   mpg   cyl  disp    hp  drat    wt  qsec    vs    am  carb
  <dbl> <dbl> <dbl> <dbl> <dbl> <dbl> <dbl> <dbl> <dbl> <dbl> <dbl>
1     4  21       6   160   110  3.9   2.62  16.5     0     1     4
2     4  21       6   160   110  3.9   2.88  17.0     0     1     4
3     4  22.8     4   108    93  3.85  2.32  18.6     1     1     1
4     3  21.4     6   258   110  3.08  3.22  19.4     1     0     1
5     3  18.7     8   360   175  3.15  3.44  17.0     0     0     2
# ℹ 27 more rows

mtcars2 <- mtcars %>%
    dplyr::mutate(
        gear,
        am_v = dplyr::case_match(
            am,
            0 ~ "automatic",
            1 ~ "manual"
        )
    ) %>%
    tibble::as_tibble()
mtcars2

# A tibble: 32 × 12
    mpg   cyl  disp    hp  drat    wt  qsec    vs    am  gear  carb am_v     
  <dbl> <dbl> <dbl> <dbl> <dbl> <dbl> <dbl> <dbl> <dbl> <dbl> <dbl> <chr>    
1  21       6   160   110  3.9   2.62  16.5     0     1     4     4 manual   
2  21       6   160   110  3.9   2.88  17.0     0     1     4     4 manual   
3  22.8     4   108    93  3.85  2.32  18.6     1     1     4     1 manual   
4  21.4     6   258   110  3.08  3.22  19.4     1     0     3     1 automatic
5  18.7     8   360   175  3.15  3.44  17.0     0     0     3     2 automatic
# ℹ 27 more rows
…
Filtering joins remove observations from x based on their presence in y.

Types of filtering consist of:

Semi join: Keep every observation in x that is in y.

Anti join: Keep every observation in x that is not in y.

The following sections will introduce each join with an example.

To experiment with joins, we need a second dataset with complementary information. This new dataset contains additional variables for a subset of the penguins in our first dataset – both datasets feature 300 penguins, but only with a partial overlap in individuals.

bills <- readr::read_csv("penguin_bills.csv")

# A tibble: 300 × 3
     id bill_length_mm bill_depth_mm
  <dbl>          <dbl>         <dbl>
1     1           39.1          18.7
2     2           39.5          17.4
3     3           40.3          18  
4     4           36.7          19.3
5     5           39.3          20.6
# ℹ 295 more rows
…
